[{"line":1,"elements":[{"line":3,"name":"","description":"","type":"background","keyword":"Background","steps":[{"name":"url baseUrl1","result":{"duration":119000,"status":"passed"},"match":{"location":"karate","arguments":[]},"keyword":"*","line":4},{"name":"def ExcelReader = Java.type('Utilities.WriteDataInExcel')","result":{"duration":8747200,"status":"passed"},"match":{"location":"karate","arguments":[]},"keyword":"*","line":5},{"name":"def rowNum1 = 2","result":{"duration":4042700,"status":"passed"},"match":{"location":"karate","arguments":[]},"keyword":"*","line":6},{"name":"def rowNum2 = 3","result":{"duration":3786500,"status":"passed"},"match":{"location":"karate","arguments":[]},"keyword":"*","line":7},{"name":"def scenario1 = ExcelReader.setTheValuesFromExcelFileInFeatureFile(rowNum1)","result":{"duration":710273800,"status":"passed"},"match":{"location":"karate","arguments":[]},"keyword":"*","line":8},{"name":"print scenario1","result":{"duration":1363800,"status":"passed"},"match":{"location":"karate","arguments":[]},"keyword":"*","line":9,"doc_string":{"content_type":"","value":"16:53:49.475 [print] [\n  \"2\",\n  \"200\"\n]","line":9}},{"name":"print scenario1[0]","result":{"duration":17418000,"status":"passed"},"match":{"location":"karate","arguments":[]},"keyword":"*","line":10,"doc_string":{"content_type":"","value":"16:53:49.493 [print] 2","line":10}},{"name":"def scenario2 = ExcelReader.setTheValuesFromExcelFileInFeatureFile(rowNum2)","result":{"duration":28346100,"status":"passed"},"match":{"location":"karate","arguments":[]},"keyword":"*","line":11},{"name":"print scenario2","result":{"duration":514000,"status":"passed"},"match":{"location":"karate","arguments":[]},"keyword":"*","line":12,"doc_string":{"content_type":"","value":"16:53:49.522 [print] [\n  \"3\",\n  \"200\"\n]","line":12}},{"name":"print scenario2[0]","result":{"duration":9092600,"status":"passed"},"match":{"location":"karate","arguments":[]},"keyword":"*","line":13,"doc_string":{"content_type":"","value":"16:53:49.531 [print] 3","line":13}}]},{"line":15,"name":"get the reponse and pass it to csv","description":"","id":"get-the-reponse-and-pass-it-to-csv","type":"scenario","keyword":"Scenario","steps":[{"name":"path urlPath+scenario1[0]","result":{"duration":8448200,"status":"passed"},"match":{"location":"karate","arguments":[]},"keyword":"Given","line":16},{"name":"def responseCode = scenario1[1]","result":{"duration":2626300,"status":"passed"},"match":{"location":"karate","arguments":[]},"keyword":"*","line":17},{"name":"method get","result":{"duration":503565800,"status":"passed"},"match":{"location":"karate","arguments":[]},"keyword":"When","line":18,"doc_string":{"content_type":"","value":"16:53:49.826 request:\n1 > GET https:\/\/reqres.in\/api\/users%3Fpage=2\n1 > Accept-Encoding: gzip,deflate\n1 > Connection: Keep-Alive\n1 > Host: reqres.in\n1 > User-Agent: Apache-HttpClient\/4.5.12 (Java\/11.0.18)\n\n16:53:50.043 response time in milliseconds: 214.39\n1 < 200\n1 < Access-Control-Allow-Origin: *\n1 < Age: 405\n1 < CF-Cache-Status: HIT\n1 < CF-RAY: 875c0b979be12e8a-HYD\n1 < Cache-Control: max-age=14400\n1 < Connection: keep-alive\n1 < Content-Type: application\/json; charset=utf-8\n1 < Date: Wed, 17 Apr 2024 11:23:50 GMT\n1 < Etag: W\/\"2c1-N6Rqerxquq2kgQhL51EiSg4x0R8\"\n1 < Nel: {\"report_to\":\"heroku-nel\",\"max_age\":3600,\"success_fraction\":0.005,\"failure_fraction\":0.05,\"response_headers\":[\"Via\"]}\n1 < Report-To: {\"group\":\"heroku-nel\",\"max_age\":3600,\"endpoints\":[{\"url\":\"https:\/\/nel.heroku.com\/reports?ts=1713176701&sid=c4c9725f-1ab0-44d8-820f-430df2718e11&s=loP%2BKJcESuq%2FvwVXFd5E2bNiaQqyyL1xr8ISwvKOH14%3D\"}]}\n1 < Reporting-Endpoints: heroku-nel=https:\/\/nel.heroku.com\/reports?ts=1713176701&sid=c4c9725f-1ab0-44d8-820f-430df2718e11&s=loP%2BKJcESuq%2FvwVXFd5E2bNiaQqyyL1xr8ISwvKOH14%3D\n1 < Server: cloudflare\n1 < Transfer-Encoding: chunked\n1 < Vary: Accept-Encoding\n1 < Via: 1.1 vegur\n1 < X-Powered-By: Express\n{\"page\":1,\"per_page\":6,\"total\":12,\"total_pages\":2,\"data\":[{\"id\":1,\"name\":\"cerulean\",\"year\":2000,\"color\":\"#98B2D1\",\"pantone_value\":\"15-4020\"},{\"id\":2,\"name\":\"fuchsia rose\",\"year\":2001,\"color\":\"#C74375\",\"pantone_value\":\"17-2031\"},{\"id\":3,\"name\":\"true red\",\"year\":2002,\"color\":\"#BF1932\",\"pantone_value\":\"19-1664\"},{\"id\":4,\"name\":\"aqua sky\",\"year\":2003,\"color\":\"#7BC4C4\",\"pantone_value\":\"14-4811\"},{\"id\":5,\"name\":\"tigerlily\",\"year\":2004,\"color\":\"#E2583E\",\"pantone_value\":\"17-1456\"},{\"id\":6,\"name\":\"blue turquoise\",\"year\":2005,\"color\":\"#53B0AE\",\"pantone_value\":\"15-5217\"}],\"support\":{\"url\":\"https:\/\/reqres.in\/#support-heading\",\"text\":\"To keep ReqRes free, contributions towards server costs are appreciated!\"}}","line":18}},{"name":"print responseCode","result":{"duration":212900,"status":"passed"},"match":{"location":"karate","arguments":[]},"keyword":"*","line":19,"doc_string":{"content_type":"","value":"16:53:50.047 [print] 200","line":19}},{"name":"status 200","result":{"duration":21400,"status":"passed"},"match":{"location":"karate","arguments":[]},"keyword":"Then","line":20},{"name":"print response","result":{"duration":304500,"status":"passed"},"match":{"location":"karate","arguments":[]},"keyword":"*","line":21,"doc_string":{"content_type":"","value":"16:53:50.047 [print] {\n  \"per_page\": 6,\n  \"total\": 12,\n  \"data\": [\n    {\n      \"color\": \"#98B2D1\",\n      \"year\": 2000,\n      \"name\": \"cerulean\",\n      \"id\": 1,\n      \"pantone_value\": \"15-4020\"\n    },\n    {\n      \"color\": \"#C74375\",\n      \"year\": 2001,\n      \"name\": \"fuchsia rose\",\n      \"id\": 2,\n      \"pantone_value\": \"17-2031\"\n    },\n    {\n      \"color\": \"#BF1932\",\n      \"year\": 2002,\n      \"name\": \"true red\",\n      \"id\": 3,\n      \"pantone_value\": \"19-1664\"\n    },\n    {\n      \"color\": \"#7BC4C4\",\n      \"year\": 2003,\n      \"name\": \"aqua sky\",\n      \"id\": 4,\n      \"pantone_value\": \"14-4811\"\n    },\n    {\n      \"color\": \"#E2583E\",\n      \"year\": 2004,\n      \"name\": \"tigerlily\",\n      \"id\": 5,\n      \"pantone_value\": \"17-1456\"\n    },\n    {\n      \"color\": \"#53B0AE\",\n      \"year\": 2005,\n      \"name\": \"blue turquoise\",\n      \"id\": 6,\n      \"pantone_value\": \"15-5217\"\n    }\n  ],\n  \"page\": 1,\n  \"total_pages\": 2,\n  \"support\": {\n    \"text\": \"To keep ReqRes free, contributions towards server costs are appreciated!\",\n    \"url\": \"https:\/\/reqres.in\/#support-heading\"\n  }\n}","line":21}},{"name":"def responseStatusVariable = responseStatus","result":{"duration":13800,"status":"passed"},"match":{"location":"karate","arguments":[]},"keyword":"*","line":22},{"name":"print responseStatusVariable","result":{"duration":98900,"status":"passed"},"match":{"location":"karate","arguments":[]},"keyword":"*","line":23,"doc_string":{"content_type":"","value":"16:53:50.048 [print] 200","line":23}},{"name":"ExcelReader.setTheStatusIntoExcelFile(responseStatusVariable,rowNum1)","result":{"duration":119074600,"status":"passed"},"match":{"location":"karate","arguments":[]},"keyword":"*","line":24}]},{"line":3,"name":"","description":"","type":"background","keyword":"Background","steps":[{"name":"url baseUrl1","result":{"duration":15900,"status":"passed"},"match":{"location":"karate","arguments":[]},"keyword":"*","line":4},{"name":"def ExcelReader = Java.type('Utilities.WriteDataInExcel')","result":{"duration":384100,"status":"passed"},"match":{"location":"karate","arguments":[]},"keyword":"*","line":5},{"name":"def rowNum1 = 2","result":{"duration":88600,"status":"passed"},"match":{"location":"karate","arguments":[]},"keyword":"*","line":6},{"name":"def rowNum2 = 3","result":{"duration":50400,"status":"passed"},"match":{"location":"karate","arguments":[]},"keyword":"*","line":7},{"name":"def scenario1 = ExcelReader.setTheValuesFromExcelFileInFeatureFile(rowNum1)","result":{"duration":16879300,"status":"passed"},"match":{"location":"karate","arguments":[]},"keyword":"*","line":8},{"name":"print scenario1","result":{"duration":338200,"status":"passed"},"match":{"location":"karate","arguments":[]},"keyword":"*","line":9,"doc_string":{"content_type":"","value":"16:53:50.193 [print] [\n  \"2\",\n  \"200\"\n]","line":9}},{"name":"print scenario1[0]","result":{"duration":1917700,"status":"passed"},"match":{"location":"karate","arguments":[]},"keyword":"*","line":10,"doc_string":{"content_type":"","value":"16:53:50.195 [print] 2","line":10}},{"name":"def scenario2 = ExcelReader.setTheValuesFromExcelFileInFeatureFile(rowNum2)","result":{"duration":16101000,"status":"passed"},"match":{"location":"karate","arguments":[]},"keyword":"*","line":11},{"name":"print scenario2","result":{"duration":470900,"status":"passed"},"match":{"location":"karate","arguments":[]},"keyword":"*","line":12,"doc_string":{"content_type":"","value":"16:53:50.212 [print] [\n  \"3\",\n  \"200\"\n]","line":12}},{"name":"print scenario2[0]","result":{"duration":768700,"status":"passed"},"match":{"location":"karate","arguments":[]},"keyword":"*","line":13,"doc_string":{"content_type":"","value":"16:53:50.213 [print] 3","line":13}}]},{"line":27,"name":"get the reponse and pass it to csv","description":"","id":"get-the-reponse-and-pass-it-to-csv","type":"scenario","keyword":"Scenario","steps":[{"name":"path urlPath+scenario2[0]","result":{"duration":6642400,"status":"passed"},"match":{"location":"karate","arguments":[]},"keyword":"Given","line":28},{"name":"def responseCode = scenario2[1]","result":{"duration":2440500,"status":"passed"},"match":{"location":"karate","arguments":[]},"keyword":"*","line":29},{"name":"method get","result":{"duration":104519100,"status":"passed"},"match":{"location":"karate","arguments":[]},"keyword":"When","line":30,"doc_string":{"content_type":"","value":"16:53:50.224 request:\n1 > GET https:\/\/reqres.in\/api\/users%3Fpage=3\n1 > Accept-Encoding: gzip,deflate\n1 > Connection: Keep-Alive\n1 > Host: reqres.in\n1 > User-Agent: Apache-HttpClient\/4.5.12 (Java\/11.0.18)\n\n16:53:50.327 response time in milliseconds: 101.64\n1 < 200\n1 < Access-Control-Allow-Origin: *\n1 < Age: 404\n1 < CF-Cache-Status: HIT\n1 < CF-RAY: 875c0b994e6e2e84-HYD\n1 < Cache-Control: max-age=14400\n1 < Connection: keep-alive\n1 < Content-Type: application\/json; charset=utf-8\n1 < Date: Wed, 17 Apr 2024 11:23:50 GMT\n1 < Etag: W\/\"2c1-N6Rqerxquq2kgQhL51EiSg4x0R8\"\n1 < Nel: {\"report_to\":\"heroku-nel\",\"max_age\":3600,\"success_fraction\":0.005,\"failure_fraction\":0.05,\"response_headers\":[\"Via\"]}\n1 < Report-To: {\"group\":\"heroku-nel\",\"max_age\":3600,\"endpoints\":[{\"url\":\"https:\/\/nel.heroku.com\/reports?ts=1713178914&sid=c4c9725f-1ab0-44d8-820f-430df2718e11&s=H9bmPYox5Z439tPA8RlwNPaZyNDeha6aIyb6uG26Ysg%3D\"}]}\n1 < Reporting-Endpoints: heroku-nel=https:\/\/nel.heroku.com\/reports?ts=1713178914&sid=c4c9725f-1ab0-44d8-820f-430df2718e11&s=H9bmPYox5Z439tPA8RlwNPaZyNDeha6aIyb6uG26Ysg%3D\n1 < Server: cloudflare\n1 < Transfer-Encoding: chunked\n1 < Vary: Accept-Encoding\n1 < Via: 1.1 vegur\n1 < X-Powered-By: Express\n{\"page\":1,\"per_page\":6,\"total\":12,\"total_pages\":2,\"data\":[{\"id\":1,\"name\":\"cerulean\",\"year\":2000,\"color\":\"#98B2D1\",\"pantone_value\":\"15-4020\"},{\"id\":2,\"name\":\"fuchsia rose\",\"year\":2001,\"color\":\"#C74375\",\"pantone_value\":\"17-2031\"},{\"id\":3,\"name\":\"true red\",\"year\":2002,\"color\":\"#BF1932\",\"pantone_value\":\"19-1664\"},{\"id\":4,\"name\":\"aqua sky\",\"year\":2003,\"color\":\"#7BC4C4\",\"pantone_value\":\"14-4811\"},{\"id\":5,\"name\":\"tigerlily\",\"year\":2004,\"color\":\"#E2583E\",\"pantone_value\":\"17-1456\"},{\"id\":6,\"name\":\"blue turquoise\",\"year\":2005,\"color\":\"#53B0AE\",\"pantone_value\":\"15-5217\"}],\"support\":{\"url\":\"https:\/\/reqres.in\/#support-heading\",\"text\":\"To keep ReqRes free, contributions towards server costs are appreciated!\"}}","line":30}},{"name":"print responseCode","result":{"duration":226200,"status":"passed"},"match":{"location":"karate","arguments":[]},"keyword":"*","line":31,"doc_string":{"content_type":"","value":"16:53:50.327 [print] 200","line":31}},{"name":"status 200","result":{"duration":6900,"status":"passed"},"match":{"location":"karate","arguments":[]},"keyword":"Then","line":32},{"name":"print response","result":{"duration":708900,"status":"passed"},"match":{"location":"karate","arguments":[]},"keyword":"*","line":33,"doc_string":{"content_type":"","value":"16:53:50.328 [print] {\n  \"per_page\": 6,\n  \"total\": 12,\n  \"data\": [\n    {\n      \"color\": \"#98B2D1\",\n      \"year\": 2000,\n      \"name\": \"cerulean\",\n      \"id\": 1,\n      \"pantone_value\": \"15-4020\"\n    },\n    {\n      \"color\": \"#C74375\",\n      \"year\": 2001,\n      \"name\": \"fuchsia rose\",\n      \"id\": 2,\n      \"pantone_value\": \"17-2031\"\n    },\n    {\n      \"color\": \"#BF1932\",\n      \"year\": 2002,\n      \"name\": \"true red\",\n      \"id\": 3,\n      \"pantone_value\": \"19-1664\"\n    },\n    {\n      \"color\": \"#7BC4C4\",\n      \"year\": 2003,\n      \"name\": \"aqua sky\",\n      \"id\": 4,\n      \"pantone_value\": \"14-4811\"\n    },\n    {\n      \"color\": \"#E2583E\",\n      \"year\": 2004,\n      \"name\": \"tigerlily\",\n      \"id\": 5,\n      \"pantone_value\": \"17-1456\"\n    },\n    {\n      \"color\": \"#53B0AE\",\n      \"year\": 2005,\n      \"name\": \"blue turquoise\",\n      \"id\": 6,\n      \"pantone_value\": \"15-5217\"\n    }\n  ],\n  \"page\": 1,\n  \"total_pages\": 2,\n  \"support\": {\n    \"text\": \"To keep ReqRes free, contributions towards server costs are appreciated!\",\n    \"url\": \"https:\/\/reqres.in\/#support-heading\"\n  }\n}","line":33}},{"name":"def responseStatusVariable = responseStatus","result":{"duration":93300,"status":"passed"},"match":{"location":"karate","arguments":[]},"keyword":"*","line":34},{"name":"print responseStatusVariable","result":{"duration":220200,"status":"passed"},"match":{"location":"karate","arguments":[]},"keyword":"*","line":35,"doc_string":{"content_type":"","value":"16:53:50.329 [print] 200","line":35}},{"name":"ExcelReader.setTheStatusIntoExcelFile(responseStatusVariable,rowNum2)","result":{"duration":40592300,"status":"passed"},"match":{"location":"karate","arguments":[]},"keyword":"*","line":36}]}],"name":"src\/test\/java\/features\/requirement.feature","description":"Writing the data into csv fuile","id":"writing-the-data-into-csv-fuile","keyword":"Feature","uri":"src\/test\/java\/features\/requirement.feature"}]