{"failedCount":2,"prefixedPath":"src\/test\/java\/tests\/requirement.feature","packageQualifiedName":"src.test.java.tests.requirement","loopIndex":-1,"relativePath":"src\/test\/java\/tests\/requirement.feature","scenarioResults":[{"sectionIndex":0,"stepResults":[{"result":{"nanos":987300,"millis":0.9873,"status":"passed"},"step":{"background":true,"line":4,"prefix":"*","index":0,"text":"url baseUrl1"}},{"result":{"nanos":5878100,"millis":5.8781,"status":"passed"},"step":{"background":true,"line":5,"prefix":"*","index":1,"text":"def ExcelReader = Java.type('Utilities.WriteDataInExcel')"}},{"result":{"nanos":1365300,"millis":1.3653,"status":"passed"},"step":{"background":true,"line":6,"prefix":"*","index":2,"text":"def rowNum1 = 2"}},{"result":{"nanos":403800,"millis":0.4038,"status":"passed"},"step":{"background":true,"line":7,"prefix":"*","index":3,"text":"def rowNum2 = 3"}},{"result":{"nanos":780659200,"millis":780.6592,"status":"passed"},"step":{"background":true,"line":8,"prefix":"*","index":4,"text":"def scenario1 = ExcelReader.setThePageNumberAndStatusFromExcelFileInFeatureFile(rowNum1)"}},{"result":{"nanos":27311200,"millis":27.3112,"status":"passed"},"step":{"background":true,"line":9,"prefix":"*","index":5,"text":"print scenario1"},"stepLog":"18:21:38.025 [print] [\n  \"2\",\n  \"200\"\n]\n \n"},{"result":{"nanos":3178700,"millis":3.1787,"status":"passed"},"step":{"background":true,"line":10,"prefix":"*","index":6,"text":"print scenario1[0]"},"stepLog":"18:21:38.028 [print] 2 \n"},{"result":{"nanos":25390400,"millis":25.3904,"status":"passed"},"step":{"background":true,"line":11,"prefix":"*","index":7,"text":"def scenario2 = ExcelReader.setThePageNumberAndStatusFromExcelFileInFeatureFile(rowNum2)"}},{"result":{"nanos":1594900,"millis":1.5949,"status":"passed"},"step":{"background":true,"line":12,"prefix":"*","index":8,"text":"print scenario2"},"stepLog":"18:21:38.056 [print] [\n  \"3\",\n  \"200\"\n]\n \n"},{"result":{"nanos":1072500,"millis":1.0725,"status":"passed"},"step":{"background":true,"line":13,"prefix":"*","index":9,"text":"print scenario2[0]"},"stepLog":"18:21:38.057 [print] 3 \n"},{"result":{"nanos":5606000,"millis":5.606,"status":"passed"},"step":{"line":17,"prefix":"Given","index":0,"text":"path urlPath+scenario1[0]"}},{"result":{"nanos":770100,"millis":0.7701,"status":"passed"},"step":{"line":18,"prefix":"*","index":1,"text":"def responseCode = scenario1[1]"}},{"result":{"nanos":531551700,"millis":531.5517,"status":"passed"},"step":{"line":19,"prefix":"When","index":2,"text":"method get"},"stepLog":"18:21:38.295 request:\n1 > GET https:\/\/reqres.in\/api\/users%3Fpage=2\n1 > Host: reqres.in\n1 > Connection: Keep-Alive\n1 > User-Agent: Apache-HttpClient\/4.5.13 (Java\/11.0.18)\n1 > Accept-Encoding: gzip,deflate\n\n\n18:21:38.591 response time in milliseconds: 295\n1 < 200\n1 < Date: Sat, 13 Apr 2024 12:51:37 GMT\n1 < Content-Type: application\/json; charset=utf-8\n1 < Transfer-Encoding: chunked\n1 < Connection: keep-alive\n1 < Report-To: {\"group\":\"heroku-nel\",\"max_age\":3600,\"endpoints\":[{\"url\":\"https:\/\/nel.heroku.com\/reports?ts=1713010525&sid=c4c9725f-1ab0-44d8-820f-430df2718e11&s=r90CPmFDIG%2FXi8e%2BdotzR5vg%2BZZ6YvXaZhOK738ovQQ%3D\"}]}\n1 < Reporting-Endpoints: heroku-nel=https:\/\/nel.heroku.com\/reports?ts=1713010525&sid=c4c9725f-1ab0-44d8-820f-430df2718e11&s=r90CPmFDIG%2FXi8e%2BdotzR5vg%2BZZ6YvXaZhOK738ovQQ%3D\n1 < Nel: {\"report_to\":\"heroku-nel\",\"max_age\":3600,\"success_fraction\":0.005,\"failure_fraction\":0.05,\"response_headers\":[\"Via\"]}\n1 < X-Powered-By: Express\n1 < Access-Control-Allow-Origin: *\n1 < Etag: W\/\"2c1-N6Rqerxquq2kgQhL51EiSg4x0R8\"\n1 < Via: 1.1 vegur\n1 < Cache-Control: max-age=14400\n1 < CF-Cache-Status: HIT\n1 < Age: 2172\n1 < Vary: Accept-Encoding\n1 < Server: cloudflare\n1 < CF-RAY: 873b96b0dc87795d-AMD\n{\"page\":1,\"per_page\":6,\"total\":12,\"total_pages\":2,\"data\":[{\"id\":1,\"name\":\"cerulean\",\"year\":2000,\"color\":\"#98B2D1\",\"pantone_value\":\"15-4020\"},{\"id\":2,\"name\":\"fuchsia rose\",\"year\":2001,\"color\":\"#C74375\",\"pantone_value\":\"17-2031\"},{\"id\":3,\"name\":\"true red\",\"year\":2002,\"color\":\"#BF1932\",\"pantone_value\":\"19-1664\"},{\"id\":4,\"name\":\"aqua sky\",\"year\":2003,\"color\":\"#7BC4C4\",\"pantone_value\":\"14-4811\"},{\"id\":5,\"name\":\"tigerlily\",\"year\":2004,\"color\":\"#E2583E\",\"pantone_value\":\"17-1456\"},{\"id\":6,\"name\":\"blue turquoise\",\"year\":2005,\"color\":\"#53B0AE\",\"pantone_value\":\"15-5217\"}],\"support\":{\"url\":\"https:\/\/reqres.in\/#support-heading\",\"text\":\"To keep ReqRes free, contributions towards server costs are appreciated!\"}}\n"},{"result":{"nanos":1027300,"millis":1.0273,"status":"passed"},"step":{"line":20,"prefix":"*","index":3,"text":"print 'Response Status is '+responseCode"},"stepLog":"18:21:38.595 [print] Response Status is 200 \n"},{"result":{"nanos":19700,"millis":0.0197,"status":"passed"},"step":{"line":21,"prefix":"Then","index":4,"text":"status 200"}},{"result":{"nanos":971300,"millis":0.9713,"status":"passed"},"step":{"line":22,"prefix":"*","index":5,"text":"print response"},"stepLog":"18:21:38.596 [print] {\n  \"page\": 1,\n  \"per_page\": 6,\n  \"total\": 12,\n  \"total_pages\": 2,\n  \"data\": [\n    {\n      \"id\": 1,\n      \"name\": \"cerulean\",\n      \"year\": 2000,\n      \"color\": \"#98B2D1\",\n      \"pantone_value\": \"15-4020\"\n    },\n    {\n      \"id\": 2,\n      \"name\": \"fuchsia rose\",\n      \"year\": 2001,\n      \"color\": \"#C74375\",\n      \"pantone_value\": \"17-2031\"\n    },\n    {\n      \"id\": 3,\n      \"name\": \"true red\",\n      \"year\": 2002,\n      \"color\": \"#BF1932\",\n      \"pantone_value\": \"19-1664\"\n    },\n    {\n      \"id\": 4,\n      \"name\": \"aqua sky\",\n      \"year\": 2003,\n      \"color\": \"#7BC4C4\",\n      \"pantone_value\": \"14-4811\"\n    },\n    {\n      \"id\": 5,\n      \"name\": \"tigerlily\",\n      \"year\": 2004,\n      \"color\": \"#E2583E\",\n      \"pantone_value\": \"17-1456\"\n    },\n    {\n      \"id\": 6,\n      \"name\": \"blue turquoise\",\n      \"year\": 2005,\n      \"color\": \"#53B0AE\",\n      \"pantone_value\": \"15-5217\"\n    }\n  ],\n  \"support\": {\n    \"url\": \"https:\/\/reqres.in\/#support-heading\",\n    \"text\": \"To keep ReqRes free, contributions towards server costs are appreciated!\"\n  }\n}\n \n"},{"result":{"nanos":1078600,"millis":1.0786,"status":"passed"},"step":{"line":23,"prefix":"*","index":6,"text":"def responseStatusVariable = responseStatus"}},{"result":{"nanos":761000,"millis":0.761,"status":"passed"},"step":{"line":24,"prefix":"*","index":7,"text":"print responseStatusVariable"},"stepLog":"18:21:38.598 [print] 200 \n"},{"result":{"nanos":10283400,"errorMessage":"js failed:\n>>>>\n01: ExcelReader.setTheStatusIntoExcelFile(responseStatusVariable,rowNum1)\n<<<<\norg.graalvm.polyglot.PolyglotException: TypeError: invokeMember (setTheStatusIntoExcelFile) on Utilities.WriteDataInExcel failed due to: Cannot convert '200'(language: Java, type: java.lang.Integer) to Java type 'java.lang.String': Invalid or lossy primitive coercion.\n- <js>.:program(Unnamed:1)\n\nsrc\/test\/java\/tests\/requirement.feature:25","millis":10.2834,"status":"failed"},"step":{"line":25,"prefix":"*","index":8,"text":"ExcelReader.setTheStatusIntoExcelFile(responseStatusVariable,rowNum1)"},"stepLog":"18:21:38.609 src\/test\/java\/tests\/requirement.feature:25\n* ExcelReader.setTheStatusIntoExcelFile(responseStatusVariable,rowNum1)\njs failed:\n>>>>\n01: ExcelReader.setTheStatusIntoExcelFile(responseStatusVariable,rowNum1)\n<<<<\norg.graalvm.polyglot.PolyglotException: TypeError: invokeMember (setTheStatusIntoExcelFile) on Utilities.WriteDataInExcel failed due to: Cannot convert '200'(language: Java, type: java.lang.Integer) to Java type 'java.lang.String': Invalid or lossy primitive coercion.\n- <js>.:program(Unnamed:1)\n\nsrc\/test\/java\/tests\/requirement.feature:25\n"}],"line":16,"description":"","durationMillis":1399.9105,"failed":true,"error":"js failed:\n>>>>\n01: ExcelReader.setTheStatusIntoExcelFile(responseStatusVariable,rowNum1)\n<<<<\norg.graalvm.polyglot.PolyglotException: TypeError: invokeMember (setTheStatusIntoExcelFile) on Utilities.WriteDataInExcel failed due to: Cannot convert '200'(language: Java, type: java.lang.Integer) to Java type 'java.lang.String': Invalid or lossy primitive coercion.\n- <js>.:program(Unnamed:1)\n\nsrc\/test\/java\/tests\/requirement.feature:25","executorName":"main","name":"get the reponse and pass it to csv","startTime":1713012697073,"refId":"[1:16]","endTime":1713012698609,"exampleIndex":-1},{"sectionIndex":1,"stepResults":[{"result":{"nanos":155000,"millis":0.155,"status":"passed"},"step":{"background":true,"line":4,"prefix":"*","index":0,"text":"url baseUrl1"}},{"result":{"nanos":576400,"millis":0.5764,"status":"passed"},"step":{"background":true,"line":5,"prefix":"*","index":1,"text":"def ExcelReader = Java.type('Utilities.WriteDataInExcel')"}},{"result":{"nanos":439200,"millis":0.4392,"status":"passed"},"step":{"background":true,"line":6,"prefix":"*","index":2,"text":"def rowNum1 = 2"}},{"result":{"nanos":282600,"millis":0.2826,"status":"passed"},"step":{"background":true,"line":7,"prefix":"*","index":3,"text":"def rowNum2 = 3"}},{"result":{"nanos":19997100,"millis":19.9971,"status":"passed"},"step":{"background":true,"line":8,"prefix":"*","index":4,"text":"def scenario1 = ExcelReader.setThePageNumberAndStatusFromExcelFileInFeatureFile(rowNum1)"}},{"result":{"nanos":633300,"millis":0.6333,"status":"passed"},"step":{"background":true,"line":9,"prefix":"*","index":5,"text":"print scenario1"},"stepLog":"18:21:38.639 [print] [\n  \"2\",\n  \"200\"\n]\n \n"},{"result":{"nanos":418300,"millis":0.4183,"status":"passed"},"step":{"background":true,"line":10,"prefix":"*","index":6,"text":"print scenario1[0]"},"stepLog":"18:21:38.639 [print] 2 \n"},{"result":{"nanos":16513600,"millis":16.5136,"status":"passed"},"step":{"background":true,"line":11,"prefix":"*","index":7,"text":"def scenario2 = ExcelReader.setThePageNumberAndStatusFromExcelFileInFeatureFile(rowNum2)"}},{"result":{"nanos":559600,"millis":0.5596,"status":"passed"},"step":{"background":true,"line":12,"prefix":"*","index":8,"text":"print scenario2"},"stepLog":"18:21:38.656 [print] [\n  \"3\",\n  \"200\"\n]\n \n"},{"result":{"nanos":325000,"millis":0.325,"status":"passed"},"step":{"background":true,"line":13,"prefix":"*","index":9,"text":"print scenario2[0]"},"stepLog":"18:21:38.657 [print] 3 \n"},{"result":{"nanos":583300,"millis":0.5833,"status":"passed"},"step":{"line":29,"prefix":"Given","index":0,"text":"path urlPath+scenario2[0]"}},{"result":{"nanos":766700,"millis":0.7667,"status":"passed"},"step":{"line":30,"prefix":"And","index":1,"text":"def expectedStatusCode = 200"}},{"result":{"nanos":113115500,"millis":113.1155,"status":"passed"},"step":{"line":31,"prefix":"When","index":2,"text":"method get"},"stepLog":"18:21:38.659 request:\n1 > GET https:\/\/reqres.in\/api\/users%3Fpage=3\n1 > Host: reqres.in\n1 > Connection: Keep-Alive\n1 > User-Agent: Apache-HttpClient\/4.5.13 (Java\/11.0.18)\n1 > Accept-Encoding: gzip,deflate\n\n\n18:21:38.769 response time in milliseconds: 110\n1 < 200\n1 < Date: Sat, 13 Apr 2024 12:51:37 GMT\n1 < Content-Type: application\/json; charset=utf-8\n1 < Transfer-Encoding: chunked\n1 < Connection: keep-alive\n1 < Report-To: {\"group\":\"heroku-nel\",\"max_age\":3600,\"endpoints\":[{\"url\":\"https:\/\/nel.heroku.com\/reports?ts=1713010526&sid=c4c9725f-1ab0-44d8-820f-430df2718e11&s=NlUFChu5THGfSF3pPSZSth3zJJO0gbcvOafdp9ZcT7w%3D\"}]}\n1 < Reporting-Endpoints: heroku-nel=https:\/\/nel.heroku.com\/reports?ts=1713010526&sid=c4c9725f-1ab0-44d8-820f-430df2718e11&s=NlUFChu5THGfSF3pPSZSth3zJJO0gbcvOafdp9ZcT7w%3D\n1 < Nel: {\"report_to\":\"heroku-nel\",\"max_age\":3600,\"success_fraction\":0.005,\"failure_fraction\":0.05,\"response_headers\":[\"Via\"]}\n1 < X-Powered-By: Express\n1 < Access-Control-Allow-Origin: *\n1 < Etag: W\/\"2c1-N6Rqerxquq2kgQhL51EiSg4x0R8\"\n1 < Via: 1.1 vegur\n1 < Cache-Control: max-age=14400\n1 < CF-Cache-Status: HIT\n1 < Age: 2171\n1 < Vary: Accept-Encoding\n1 < Server: cloudflare\n1 < CF-RAY: 873b96b20e26795d-AMD\n{\"page\":1,\"per_page\":6,\"total\":12,\"total_pages\":2,\"data\":[{\"id\":1,\"name\":\"cerulean\",\"year\":2000,\"color\":\"#98B2D1\",\"pantone_value\":\"15-4020\"},{\"id\":2,\"name\":\"fuchsia rose\",\"year\":2001,\"color\":\"#C74375\",\"pantone_value\":\"17-2031\"},{\"id\":3,\"name\":\"true red\",\"year\":2002,\"color\":\"#BF1932\",\"pantone_value\":\"19-1664\"},{\"id\":4,\"name\":\"aqua sky\",\"year\":2003,\"color\":\"#7BC4C4\",\"pantone_value\":\"14-4811\"},{\"id\":5,\"name\":\"tigerlily\",\"year\":2004,\"color\":\"#E2583E\",\"pantone_value\":\"17-1456\"},{\"id\":6,\"name\":\"blue turquoise\",\"year\":2005,\"color\":\"#53B0AE\",\"pantone_value\":\"15-5217\"}],\"support\":{\"url\":\"https:\/\/reqres.in\/#support-heading\",\"text\":\"To keep ReqRes free, contributions towards server costs are appreciated!\"}}\n"},{"result":{"nanos":2667000,"errorMessage":"js failed:\n>>>>\n01: karate.log('[print]','Response Status is '+responseCode)\n<<<<\norg.graalvm.polyglot.PolyglotException: ReferenceError: \"responseCode\" is not defined\n- <js>.:program(Unnamed:1)\n\nsrc\/test\/java\/tests\/requirement.feature:32","millis":2.667,"status":"failed"},"step":{"line":32,"prefix":"*","index":3,"text":"print 'Response Status is '+responseCode"},"stepLog":"18:21:38.774 src\/test\/java\/tests\/requirement.feature:32\n* print 'Response Status is '+responseCode\njs failed:\n>>>>\n01: karate.log('[print]','Response Status is '+responseCode)\n<<<<\norg.graalvm.polyglot.PolyglotException: ReferenceError: \"responseCode\" is not defined\n- <js>.:program(Unnamed:1)\n\nsrc\/test\/java\/tests\/requirement.feature:32\n"},{"result":{"nanos":0,"millis":0.0,"status":"skipped"},"step":{"line":33,"prefix":"Then","index":4,"text":"status expectedStatusCode"}},{"result":{"nanos":0,"millis":0.0,"status":"skipped"},"step":{"line":34,"prefix":"*","index":5,"text":"print response"}},{"result":{"nanos":0,"millis":0.0,"status":"skipped"},"step":{"line":35,"prefix":"*","index":6,"text":"def responseStatusVariable = responseStatus"}},{"result":{"nanos":0,"millis":0.0,"status":"skipped"},"step":{"line":36,"prefix":"*","index":7,"text":"print responseStatusVariable"}},{"result":{"nanos":0,"millis":0.0,"status":"skipped"},"step":{"line":37,"prefix":"*","index":8,"text":"ExcelReader.setTheStatusIntoExcelFile(responseStatusVariable,rowNum2)"}}],"line":28,"description":"","durationMillis":157.0326,"failed":true,"error":"js failed:\n>>>>\n01: karate.log('[print]','Response Status is '+responseCode)\n<<<<\norg.graalvm.polyglot.PolyglotException: ReferenceError: \"responseCode\" is not defined\n- <js>.:program(Unnamed:1)\n\nsrc\/test\/java\/tests\/requirement.feature:32","executorName":"main","name":"get the reponse and pass it to csv","startTime":1713012698614,"refId":"[2:28]","endTime":1713012698774,"exampleIndex":-1}],"callDepth":0,"name":"Writing the data into csv fuile","description":"","resultDate":"2024-04-13 06:21:38 PM","durationMillis":1556.9431,"passedCount":0}